{
 "nom_type_session":"Parents",
 "type_session":1,
 "familles" : [
  {
   "nom_famille":"Famille AlexLex",
   "nombre_parents":1,
   "nombre_enfants":0,
   "total_taches_enfants":4,
   "total_taches_parents":4,
   "total_tasks_today_children":4,
   "total_tasks_today_parents":4,
   "recompense_enfants":2,
   "recompense_parents":1,
   "date_inscription":"2018-10-14"
  },
  {
   "nom_famille":"Famille Vincent",
   "nombre_parents":1,
   "nombre_enfants":1,
   "total_taches_enfants":30,
   "total_taches_parents":25,
   "total_tasks_today_children":4,
   "total_tasks_today_parents":4,
   "recompense_enfants":1,
   "recompense_parents":1,
   "date_inscription":"2018-12-15"
  },
  {
   "nom_famille":"Famille Berro",
   "nombre_parents":4,
   "nombre_enfants":1,
   "total_taches_enfants":7,
   "total_taches_parents":90,
   "total_tasks_today_children":4,
   "total_tasks_today_parents":4,
   "recompense_enfants":3,
   "recompense_parents":1,
   "date_inscription":"2018-06-20"
  },
  {
   "nom_famille":"Famille Jhonson",
   "nombre_annees_anciennete":1,
   "nombre_parents":3,
   "nombre_enfants":1,
   "total_taches_enfants":0,
   "total_taches_parents":0,
   "total_tasks_today_children":4,
   "total_tasks_today_parents":4,
   "recompense_enfants":3,
   "recompense_parents":1,
   "date_inscription":"2018-06-20"
  }
 ]

}